<?xml version="1.0" encoding="utf-8"?>
<!-- Generator: Adobe Illustrator 18.1.1, SVG Export Plug-In . SVG Version: 6.00 Build 0)  -->
<svg version="1.1" id="Layer_1" xmlns="http://www.w3.org/2000/svg" xmlns:xlink="http://www.w3.org/1999/xlink" x="0px" y="0px"
	 viewBox="0 0 612 792" enable-background="new 0 0 612 792" xml:space="preserve">
<title>sprite-pad</title>
<polygon fill="#5733DB" points="417.4,121.1 463.4,147.6 463.4,200.8 417.4,227.4 371.4,200.8 371.4,147.6 "/>
<path fill="#F26322" d="M271,288.9v17.6l-15.2,8.8l-15.2-8.8v-17.6l15.2-8.8L271,288.9z"/>
<polygon fill="#F26322" points="241.1,266.3 241.1,249.4 255.8,241 270.4,249.4 270.4,266.3 255.8,274.8 "/>
<path fill="#F26322" d="M255.8,241.6l14.1,8.2v16.3l-14.1,8.2l-14.1-8.2v-16.3L255.8,241.6 M255.8,240.3l-15.2,8.8v17.5l15.2,8.8
	l15.2-8.8v-17.5L255.8,240.3L255.8,240.3z"/>
<polygon fill="#F26322" points="241.1,226.5 241.1,209.7 255.8,201.2 270.4,209.7 270.4,226.5 255.8,235 "/>
<path fill="#F26322" d="M255.8,201.8l14.1,8.2v16.3l-14.1,8.2l-14.1-8.2V210L255.8,201.8 M255.8,200.6l-15.2,8.8v17.6l15.2,8.8
	l15.2-8.8v-17.6L255.8,200.6L255.8,200.6L255.8,200.6z"/>
<polygon fill="#F26322" points="241.1,186.8 241.1,169.9 255.8,161.5 270.4,169.9 270.4,186.8 255.8,195.2 "/>
<path fill="#F26322" d="M255.8,162.1l14.1,8.2v16.3l-14.1,8.2l-14.1-8.3v-16.3L255.8,162.1 M255.8,160.8l-15.2,8.8v17.6l15.2,8.8
	l15.2-8.8v-17.6L255.8,160.8L255.8,160.8L255.8,160.8z"/>
<path fill="#F26322" d="M271,129.9v17.6l-15.2,8.8l-15.2-8.9v-17.5l15.2-8.8L271,129.9z"/>
<polygon fill="#F58131" points="255.8,121.1 240.6,129.9 240.6,129.9 271,147.3 271,129.9 "/>
<path fill="#F26322" d="M186.7,122.3l14.1,8.1v16.3l-14.1,8.2l-14.1-8.1v-16.4L186.7,122.3 M186.7,121.1l-15.2,8.8v17.6l15.2,8.8
	l15.2-8.8v-17.6L186.7,121.1L186.7,121.1L186.7,121.1z"/>
<path fill="#22A8E0" d="M28,187.4c-0.6,0.3-1.4,0.4-2,0.5c0.7-0.4,1.3-1.2,1.6-1.9c-0.7,0.4-1.5,0.7-2.2,0.8
	c-1.4-1.4-3.6-1.5-4.9-0.1c-0.8,0.8-1.3,2.1-1,3.2c-2.8-0.1-5.4-1.5-7.2-3.7c-0.9,1.6-0.5,3.7,1,4.6c-0.5,0-1-0.2-1.6-0.4l0,0
	c0,1.7,1.2,3,2.8,3.5c-0.5,0.1-1,0.2-1.6,0.1c0.4,1.5,1.8,2.4,3.2,2.4c-1.3,0.9-2.7,1.5-4.3,1.5c-0.3,0-0.5,0-0.8,0
	c4.6,2.9,10.8,1.6,13.7-3c1-1.6,1.6-3.5,1.6-5.3c0-0.1,0-0.3,0-0.4C26.9,188.7,27.5,188.1,28,187.4z"/>
<path fill="#405C9E" d="M19.4,122.3l18.3,10.6V154l-18.3,10.6L1,154v-21.1L19.4,122.3 M19.4,121.1L0,132.3v22.3l19.4,11.2l19.4-11.2
	v-22.3L19.4,121.1L19.4,121.1z"/>
<path fill="#405C9E" d="M23.6,133.5v3.2h-1.9c-0.8-0.2-1.6,0.3-1.8,1.2c0,0.2,0,0.4,0,0.6v2.3h3.6l-0.5,3.6h-3.1v9.2h-3.7v-9.3h-3.1
	v-3.6h3.1v-2.6c0-3,1.9-4.7,4.6-4.7C21.9,133.4,22.8,133.4,23.6,133.5z"/>
<path fill="#405C9E" d="M62.2,121.1l-19.4,11.2v22.3l19.4,11.2l19.4-11.2v-22.3L62.2,121.1z M66.6,136.8h-1.9
	c-0.8-0.2-1.6,0.3-1.8,1.2c0,0.2,0,0.4,0,0.6v2.3h3.6l-0.5,3.6h-3.1v9.2h-3.7v-9.3h-3.1v-3.6h3.1v-2.6c0-3,1.9-4.7,4.6-4.7
	c0.9,0,1.9,0,2.8,0.1C66.6,133.5,66.6,136.8,66.6,136.8z"/>
<path fill="#F26322" d="M105.1,122.3l18.3,10.6V154l-18.3,10.6L86.8,154v-21.1L105.1,122.3 M105.1,121.1l-19.4,11.2v22.3l19.4,11.2
	l19.4-11.2v-22.3L105.1,121.1L105.1,121.1z"/>
<path fill="#F26322" d="M148,121.1l-19.4,11.2v22.3l19.4,11.2l19.4-11.2v-22.3L148,121.1z"/>
<path fill="#22A8E0" d="M19.4,171.5l18.3,10.6v21.1l-18.3,10.6L1,203.2v-21.1L19.4,171.5 M19.4,170.2L0,181.4v22.3l19.4,11.2
	l19.4-11.2v-22.3L19.4,170.2L19.4,170.2z"/>
<path fill="#22A8E0" d="M62.2,170.2l-19.4,11.2v22.3l19.4,11.2l19.4-11.2v-22.3L62.2,170.2z M69.2,189.3c0,0.1,0,0.3,0,0.4
	c0,5.4-4.4,9.9-9.8,9.9c-1.9,0-3.8-0.5-5.3-1.6c0.3,0,0.5,0,0.8,0c1.6,0,3.1-0.5,4.3-1.5c-1.5,0-2.8-1-3.2-2.4
	c0.5,0.1,1,0.1,1.6-0.1c-1.7-0.3-2.8-1.8-2.8-3.5l0,0c0.5,0.3,1,0.4,1.6,0.4c-1.6-1-2-3-1-4.6c1.8,2.2,4.4,3.5,7.1,3.7
	c-0.4-1.9,0.7-3.8,2.6-4.2c1.2-0.2,2.4,0.1,3.2,1c0.7-0.1,1.6-0.4,2.2-0.8c-0.2,0.8-0.7,1.5-1.5,1.9c0.7-0.1,1.4-0.3,2-0.5
	C70.4,188.1,69.8,188.8,69.2,189.3L69.2,189.3z"/>
<path fill="#F26322" d="M113.8,187.4c-0.6,0.3-1.4,0.4-2,0.5c0.7-0.4,1.3-1.2,1.6-1.9c-0.7,0.4-1.5,0.7-2.2,0.8
	c-1.4-1.4-3.6-1.5-4.9-0.1c-0.8,0.8-1.3,2.1-1,3.2c-2.8-0.1-5.4-1.5-7.2-3.7c-0.9,1.6-0.5,3.7,1,4.6c-0.5,0-1-0.2-1.6-0.4l0,0
	c0,1.7,1.2,3,2.8,3.5c-0.5,0.1-1,0.2-1.6,0.1c0.4,1.5,1.8,2.4,3.2,2.4c-1.3,0.9-2.7,1.5-4.3,1.5c-0.3,0-0.5,0-0.8,0
	c4.6,2.9,10.8,1.6,13.7-3c1-1.6,1.6-3.5,1.6-5.3c0-0.1,0-0.3,0-0.4C112.7,188.7,113.3,188.1,113.8,187.4z"/>
<path fill="#F26322" d="M105.1,171.5l18.3,10.6v21.1l-18.3,10.6l-18.3-10.6v-21.1L105.1,171.5 M105.1,170.2l-19.4,11.2v22.3
	l19.4,11.2l19.4-11.2v-22.3L105.1,170.2L105.1,170.2z"/>
<path fill="#F26322" d="M148,170.2l-19.4,11.2v22.3l19.4,11.2l19.4-11.2v-22.3L148,170.2z"/>
<path fill="#1F72BA" d="M19.4,220.7l18.3,10.6v21.1l-18.3,10.6L1,252.4v-21.1L19.4,220.7 M19.4,219.4L0,230.6v22.3l19.4,11.2
	l19.4-11.2v-22.3L19.4,219.4L19.4,219.4z"/>
<path fill="#1F72BA" d="M62.2,219.4l-19.4,11.2v22.3l19.4,11.2l19.4-11.2v-22.3L62.2,219.4z"/>
<path fill="#F26322" d="M105.1,220.7l18.3,10.6v21.1l-18.3,10.6l-18.3-10.6v-21.1L105.1,220.7 M105.1,219.4l-19.4,11.2v22.3
	l19.4,11.2l19.4-11.2v-22.3L105.1,219.4L105.1,219.4z"/>
<path fill="#F26322" d="M148,219.4l-19.4,11.2v22.3l19.4,11.2l19.4-11.2v-22.3L148,219.4z"/>
<path fill="#C02128" d="M19.4,269.8l18.3,10.6v21.1l-18.3,10.6L1,301.5v-21.1L19.4,269.8 M19.4,268.6L0,279.8v22.3l19.4,11.2
	l19.4-11.2v-22.3L19.4,268.6L19.4,268.6z"/>
<path fill="#C02128" d="M62.2,268.6l-19.4,11.2v22.3l19.4,11.2l19.4-11.2v-22.3L62.2,268.6z"/>
<path fill="#F26322" d="M105.1,269.8l18.3,10.6v21.1l-18.3,10.6l-18.3-10.6v-21.1L105.1,269.8 M105.1,268.6l-19.4,11.2v22.3
	l19.4,11.2l19.4-11.2v-22.3L105.1,268.6L105.1,268.6z"/>
<path fill="#F26322" d="M148,268.6l-19.4,11.2v22.3l19.4,11.2l19.4-11.2v-22.3L148,268.6z"/>
<path fill="#F26822" d="M19.4,319l18.3,10.6v21.1l-18.3,10.6L1,350.7v-21.1L19.4,319 M19.4,317.7L0,328.9v22.3l19.4,11.2l19.4-11.2
	v-22.3L19.4,317.7L19.4,317.7z"/>
<path fill="#F26822" d="M62.2,317.7l-19.4,11.2v22.3l19.4,11.2l19.4-11.2v-22.3L62.2,317.7z"/>
<path fill="#4D4D4E" d="M19.4,368.2l18.3,10.6v21.1l-18.3,10.6L1,399.9v-21.1L19.4,368.2 M19.4,366.9L0,378.1v22.3l19.4,11.2
	l19.4-11.2v-22.3L19.4,366.9L19.4,366.9z"/>
<path fill="#4D4D4E" d="M62.2,366.9l-19.4,11.2v22.3l19.4,11.2l19.4-11.2v-22.3L62.2,366.9z"/>
<path fill="#F26322" d="M111,134.4c1.9,0,3.5,1.6,3.5,3.5v11.4c0,1.9-1.6,3.5-3.5,3.5h-2.2v-7.1h2.4l0.3-2.7h-2.7v-1.8
	c-0.1-0.6,0.3-1.3,0.9-1.4c0.1,0,0.3,0,0.4,0h1.5v-2.5c-0.7-0.1-1.4-0.1-2.1-0.1c-1.9-0.1-3.5,1.3-3.6,3c0,0.2,0,0.4,0,0.5v2.1h-2.4
	v2.7h2.4v7.1h-6.4c-1.9,0-3.5-1.6-3.5-3.5v-11.3c0-1.9,1.6-3.5,3.5-3.5H111z"/>
<path fill="#FFFFFF" d="M153.8,134.4c1.9,0,3.5,1.6,3.5,3.5v11.4c0,1.9-1.6,3.5-3.5,3.5h-2.2v-7.1h2.4l0.3-2.7h-2.7v-1.8
	c-0.1-0.6,0.3-1.3,0.9-1.4c0.1,0,0.3,0,0.4,0h1.5v-2.5c-0.7-0.1-1.4-0.1-2.1-0.1c-1.9-0.1-3.5,1.3-3.6,3c0,0.2,0,0.4,0,0.5v2.1h-2.4
	v2.7h2.4v7.1h-6.5c-1.9,0-3.5-1.6-3.5-3.5v-11.3c0-1.9,1.6-3.5,3.5-3.5H153.8z"/>
<path fill="#1F72BA" d="M14.8,238.9V250h-3.7v-11.1H14.8z M15.1,235.4c0,1-0.8,1.9-1.9,1.9c-0.1,0-0.1,0-0.2,0l0,0
	c-1,0.1-2-0.6-2.1-1.8c0-0.1,0-0.1,0-0.2c0-1,0.8-1.9,2-1.9H13c1-0.1,2,0.6,2.1,1.8C15.1,235.3,15.1,235.4,15.1,235.4z M28.1,243.7
	v6.4h-3.7v-6c0-1.5-0.5-2.5-1.9-2.5c-0.8,0-1.6,0.5-1.9,1.4c-0.1,0.3-0.1,0.6-0.1,0.9v6.2h-3.7c0-10,0-11.1,0-11.1h3.7v1.7l0,0
	c0.6-1.3,2-1.9,3.3-1.9C26.3,238.7,28.1,240.2,28.1,243.7z"/>
<path fill="#FFFFFF" d="M57.6,238.9V250H54v-11.1H57.6z M58,235.4c0,1-0.8,1.9-1.9,1.9c-0.1,0-0.1,0-0.2,0l0,0c-1,0.1-2-0.6-2.1-1.8
	c0-0.1,0-0.1,0-0.2c0-1,0.8-1.9,2-1.9h0.1c1-0.1,2,0.6,2.1,1.8C58,235.3,58,235.4,58,235.4z M71,243.7v6.4h-3.7v-6
	c0-1.5-0.5-2.5-1.9-2.5c-0.8,0-1.6,0.5-1.9,1.4c-0.1,0.3-0.1,0.6-0.1,0.9v6.2h-3.7c0-10,0-11.1,0-11.1h3.7v1.7l0,0
	c0.6-1.3,2-1.9,3.3-1.9C69.3,238.7,71,240.2,71,243.7z"/>
<path fill="#F26322" d="M103,244.5l5.8-3l-5.8-3V244.5z M105.2,234.3c4.5,0,7.5,0.2,7.5,0.2c0.8,0,1.6,0.3,2.2,0.9
	c0.5,0.6,0.8,1.4,0.8,2.1c0.1,1.2,0.2,2.3,0.2,3.5v1.7c0,1.2-0.1,2.3-0.2,3.5c-0.1,0.7-0.3,1.5-0.8,2.1c-0.5,0.5-1.4,0.9-2.2,0.9
	c0,0-3,0.2-7.5,0.2l0,0c-5.5,0-7.3-0.2-7.3-0.2c-0.8,0-1.7-0.3-2.4-0.9c-0.5-0.6-0.7-1.4-0.8-2.1c-0.1-1.2-0.2-2.3-0.2-3.5V241
	c0-1.2,0.1-2.3,0.2-3.5c0.1-0.7,0.3-1.5,0.8-2.1c0.5-0.6,1.4-0.9,2.2-0.9C97.7,234.5,100.7,234.3,105.2,234.3L105.2,234.3
	L105.2,234.3z"/>
<path fill="#FFFFFF" d="M145.8,244.5l5.8-3l-5.8-3V244.5z M148,234.3c4.5,0,7.5,0.2,7.5,0.2c0.8,0,1.6,0.3,2.2,0.9
	c0.5,0.6,0.8,1.4,0.8,2.1c0.1,1.2,0.2,2.3,0.2,3.5v1.7c0,1.2-0.1,2.3-0.2,3.5c-0.1,0.7-0.3,1.5-0.8,2.1c-0.5,0.5-1.4,0.9-2.2,0.9
	c0,0-3,0.2-7.5,0.2l0,0c-5.5,0-7.3-0.2-7.3-0.2c-0.8,0-1.7-0.3-2.4-0.9c-0.5-0.6-0.7-1.4-0.8-2.1c-0.1-1.2-0.2-2.3-0.2-3.5V241
	c0-1.2,0.1-2.3,0.2-3.5c0.1-0.7,0.3-1.5,0.8-2.1c0.5-0.6,1.4-0.9,2.2-0.9C140.5,234.5,143.5,234.3,148,234.3L148,234.3L148,234.3z"
	/>
<path fill="#C02128" d="M11.7,288.1c0-4.4,4.1-7.1,8.2-7.1c3.8,0,7.2,2.6,7.2,6.6c0,3.8-1.9,7.8-6.2,7.8c-1.2,0-2.2-0.5-2.7-1.5
	c-0.9,3.6-0.8,4.2-2.8,6.9l-0.2,0.1l-0.1-0.1c-0.1-0.7-0.2-1.5-0.2-2.2c0-2.4,1.2-6,1.7-8.4c-0.3-0.6-0.4-1.4-0.4-2
	c0-1.3,0.8-2.7,2.2-2.7c0.8,0,1.6,0.6,1.6,1.5c0,0.1,0,0.2,0,0.2c0,1.6-1,3-1,4.5c0,0.9,0.8,1.8,1.8,1.8c0,0,0,0,0.1,0
	c2.7,0,3.6-4,3.6-6.1c0-2.8-2-4.4-4.7-4.4c-2.9-0.1-5.4,2.2-5.5,5.1c0,0.1,0,0.2,0,0.3c0,1.6,0.9,2.3,0.9,2.7c0,0.4-0.2,1.5-0.6,1.5
	c-0.1,0-0.1,0-0.2,0C12.3,292,11.7,289.7,11.7,288.1z"/>
<path fill="#FFFFFF" d="M54.7,288.1c0-4.4,4.1-7.1,8.2-7.1c3.8,0,7.2,2.6,7.2,6.6c0,3.8-1.9,7.8-6.2,7.8c-1.2,0-2.2-0.5-2.7-1.5
	c-0.9,3.6-0.8,4.2-2.8,6.9l-0.2,0.1l-0.1-0.1c-0.1-0.7-0.2-1.5-0.2-2.2c0-2.4,1.2-6,1.7-8.4c-0.3-0.6-0.4-1.4-0.4-2
	c0-1.3,0.8-2.7,2.2-2.7c0.8,0,1.6,0.6,1.6,1.5c0,0.1,0,0.1,0,0.2c0,1.6-1,3-1,4.5c0,0.9,0.8,1.8,1.8,1.8c0,0,0,0,0.1,0
	c2.7,0,3.6-4,3.6-6.1c0-2.8-2-4.4-4.7-4.4c-2.9-0.1-5.4,2.2-5.5,5.1c0,0.1,0,0.2,0,0.3c0,1.6,0.9,2.3,0.9,2.7c0,0.4-0.2,1.5-0.6,1.5
	c-0.1,0-0.1,0-0.2,0C55.3,292,54.7,289.7,54.7,288.1z"/>
<path fill="#F26822" d="M22.4,339.2c0.2,3.8-2.6,6.9-6.4,7.2c-0.2,0-0.4,0-0.7,0c-4.1,0-7.3-3.2-7.3-7.3s3.2-7.3,7.3-7.3
	c1.8,0,3.6,0.6,4.9,1.9l-2,1.9c-0.8-0.7-1.9-1.2-2.9-1.2c-2.5,0.1-4.5,2.3-4.4,4.8c0.1,2.4,2,4.3,4.4,4.4c2,0.1,3.8-1.2,4.2-3.1
	h-4.2v-2.5h6.9C22.3,338.5,22.4,338.8,22.4,339.2z M31.1,338v2.1H29v2.1h-2.1v-2.1h-2.1V338h2.1V336H29v2.1H31.1z"/>
<path fill="#FFFFFF" d="M65.3,339.2c0.2,3.8-2.6,6.9-6.4,7.2c-0.2,0-0.4,0-0.7,0c-4.1,0-7.3-3.2-7.3-7.3s3.2-7.3,7.3-7.3
	c1.8,0,3.6,0.6,4.9,1.9l-2,1.9c-0.8-0.7-1.9-1.2-2.9-1.2c-2.5,0.1-4.5,2.3-4.4,4.8c0.1,2.4,2,4.3,4.4,4.4c2,0.1,3.8-1.2,4.2-3.1
	h-4.2v-2.5h6.9C65.2,338.5,65.3,338.8,65.3,339.2z M74,338v2.1h-2.1v2.1h-2.1v-2.1h-2.1V338h2.1V336h2.1v2.1H74z"/>
<path fill="#4D4D4E" d="M27.5,395.1v-8.2c-0.2,0.2-0.4,0.5-0.7,0.7c-1.6,1.2-3,2.4-4.5,3.6c-0.7,0.8-1.8,1.4-2.9,1.5l0,0
	c-1.2-0.1-2.1-0.6-2.9-1.5c-1.5-1.3-3-2.4-4.5-3.6c-0.3-0.2-0.5-0.4-0.7-0.7v8.2c0,0.2,0.1,0.3,0.3,0.3h15.7
	C27.4,395.4,27.5,395.3,27.5,395.1z M27.5,383.9c0-0.3,0.1-0.7-0.3-0.7H11.5c-0.2,0-0.3,0.1-0.3,0.3l0,0c0,1.2,0.6,2.3,1.6,3
	l4.3,3.3c0.5,0.4,1.6,1.5,2.3,1.5l0,0c0.7,0,1.8-0.9,2.3-1.5l4.3-3.3C26.8,385.9,27.3,384.9,27.5,383.9L27.5,383.9z M28.9,383.4
	v11.6c0,0.9-0.7,1.7-1.7,1.7l0,0H11.5c-0.9,0-1.7-0.7-1.7-1.7l0,0v-11.6c0-0.9,0.7-1.7,1.7-1.7l0,0h15.7
	C28.1,381.8,28.9,382.5,28.9,383.4L28.9,383.4z"/>
<path fill="#FFFFFF" d="M70.6,395.1v-8.2c-0.2,0.2-0.4,0.5-0.7,0.7c-1.6,1.2-3,2.4-4.5,3.6c-0.7,0.8-1.8,1.4-2.9,1.5l0,0
	c-1.2-0.1-2.1-0.6-2.9-1.5c-1.5-1.3-3-2.4-4.5-3.6c-0.3-0.2-0.5-0.4-0.7-0.7v8.2c0,0.2,0.1,0.3,0.3,0.3h15.7
	C70.4,395.4,70.6,395.3,70.6,395.1z M70.6,383.9c0-0.3,0.1-0.7-0.3-0.7H54.6c-0.2,0-0.3,0.1-0.3,0.3l0,0c0,1.2,0.6,2.3,1.6,3
	l4.3,3.3c0.5,0.4,1.6,1.5,2.3,1.5l0,0c0.7,0,1.8-0.9,2.3-1.5l4.4-3.3C69.9,385.9,70.4,384.9,70.6,383.9L70.6,383.9z M72,383.4v11.6
	c0,0.9-0.7,1.7-1.7,1.7l0,0H54.6c-0.9,0-1.7-0.7-1.7-1.7l0,0v-11.6c0-0.9,0.7-1.7,1.7-1.7l0,0h15.7C71.1,381.8,72,382.5,72,383.4
	L72,383.4L72,383.4z"/>
<path fill="#F26322" d="M108.5,291c0-1.8-1.4-3.1-3.1-3.1s-3.1,1.4-3.1,3.1c0,1.8,1.4,3.1,3.1,3.1S108.5,292.6,108.5,291z
	 M110.2,291c0,2.7-2.2,4.9-4.9,4.9c-2.7,0-4.9-2.2-4.9-4.9s2.2-4.9,4.9-4.9l0,0C108,286,110.2,288.2,110.2,291
	C110.2,290.9,110.2,291,110.2,291z M111.5,285.8c0,0.6-0.5,1.2-1.2,1.2c-0.6,0-1.2-0.5-1.2-1.2c0-0.6,0.5-1.2,1.2-1.2l0,0
	C111,284.7,111.5,285.2,111.5,285.8L111.5,285.8L111.5,285.8z M105.2,283.1c-1.4,0-4.4-0.1-5.6,0.4c-0.8,0.3-1.5,1-1.8,1.9
	c-0.5,1.3-0.4,4.2-0.4,5.6c0,1.5-0.1,4.4,0.4,5.6c0.3,0.8,0.9,1.5,1.8,1.8c1.3,0.5,4.2,0.4,5.6,0.4s4.4,0.1,5.6-0.4
	c0.8-0.3,1.5-0.9,1.8-1.8c0.5-1.3,0.4-4.2,0.4-5.6c0-1.5,0.1-4.4-0.4-5.6c-0.3-0.8-0.9-1.5-1.8-1.8
	C109.6,283,106.7,283.1,105.2,283.1L105.2,283.1z M114.8,291c0,1.4,0,2.6-0.1,4c0.2,2.9-2,5.3-4.9,5.5c-0.2,0-0.4,0-0.6,0
	c-1.4,0.1-2.6,0.1-4,0.1c-1.4,0-2.6,0-4-0.1c-2.9,0.2-5.3-2-5.5-4.9c0-0.2,0-0.4,0-0.6c-0.1-1.4-0.1-2.6-0.1-4s0-2.6,0.1-4
	c-0.2-2.9,2-5.3,4.9-5.5c0.2,0,0.4,0,0.6,0c1.4-0.1,2.6-0.1,4-0.1s2.6,0,4,0.1c2.9-0.2,5.3,2,5.5,4.9c0,0.2,0,0.4,0,0.6
	C114.9,288.4,114.9,289.6,114.8,291L114.8,291z"/>
<path fill="#FFFFFF" d="M151.4,291c0-1.8-1.4-3.1-3.1-3.1s-3.1,1.4-3.1,3.1c0,1.8,1.4,3.1,3.1,3.1S151.4,292.6,151.4,291z
	 M153.1,291c0,2.7-2.2,4.9-4.9,4.9c-2.7,0-4.9-2.2-4.9-4.9s2.2-4.9,4.9-4.9l0,0C150.9,286,153.1,288.2,153.1,291
	C153.1,290.9,153.1,291,153.1,291L153.1,291z M154.4,285.8c0,0.6-0.5,1.2-1.2,1.2s-1.2-0.5-1.2-1.2c0-0.6,0.5-1.2,1.2-1.2l0,0
	C153.9,284.7,154.4,285.2,154.4,285.8L154.4,285.8L154.4,285.8z M148.1,283.1c-1.4,0-4.4-0.1-5.6,0.4c-0.8,0.3-1.5,0.9-1.8,1.8
	c-0.5,1.3-0.4,4.2-0.4,5.6c0,1.5-0.1,4.4,0.4,5.6c0.3,0.8,0.9,1.5,1.8,1.8c1.3,0.5,4.2,0.4,5.6,0.4c1.5,0,4.4,0.1,5.6-0.4
	c0.8-0.3,1.5-0.9,1.8-1.8c0.5-1.3,0.4-4.2,0.4-5.6c0-1.5,0.1-4.4-0.4-5.6c-0.3-0.8-0.9-1.5-1.8-1.8
	C152.5,283,149.6,283.1,148.1,283.1L148.1,283.1z M157.7,291c0,1.4,0,2.6-0.1,4c0.2,2.9-2,5.3-4.9,5.5c-0.2,0-0.4,0-0.6,0
	c-1.4,0.1-2.6,0.1-4,0.1s-2.6,0-4-0.1c-2.9,0.2-5.3-2-5.5-4.9c0-0.2,0-0.4,0-0.6c-0.1-1.4-0.1-2.6-0.1-4s0-2.6,0.1-4
	c-0.2-2.9,2-5.3,4.9-5.5c0.2,0,0.4,0,0.6,0c1.4-0.1,2.6-0.1,4-0.1s2.6,0,4,0.1c2.9-0.2,5.3,2,5.5,4.9c0,0.2,0,0.4,0,0.6
	C157.8,288.4,157.8,289.6,157.7,291L157.7,291z"/>
<path fill="#F26322" d="M105.1,319l18.3,10.6v21.1l-18.3,10.6l-18.3-10.6v-21.1L105.1,319 M105.1,317.7l-19.4,11.2v22.3l19.4,11.2
	l19.4-11.2v-22.3L105.1,317.7L105.1,317.7z"/>
<path fill="#F26322" d="M148,317.7l-19.4,11.2v22.3l19.4,11.2l19.4-11.2v-22.3L148,317.7z"/>
<rect x="180.8" y="133.1" fill="#F26322" width="12.9" height="1"/>
<rect x="180.8" y="136.3" fill="#F26322" width="12.9" height="1"/>
<rect x="180.8" y="139.7" fill="#F26322" width="12.9" height="1"/>
<rect x="180.8" y="142.9" fill="#F26322" width="8.2" height="1"/>
<rect x="309.6" y="164.4" fill="#FD5000" width="23.3" height="1.9"/>
<rect x="309.6" y="170.3" fill="#FD5000" width="23.3" height="1.9"/>
<rect x="309.6" y="176.3" fill="#FD5000" width="23.3" height="1.9"/>
<rect x="309.6" y="182.2" fill="#FD5000" width="14.6" height="1.9"/>
<path fill="#F26322" d="M236.4,129.9v17.6l-15.2,8.8l-15.2-8.9v-17.5l15.2-8.8L236.4,129.9z"/>
<rect x="215.3" y="133.1" fill="#FFFFFF" width="12.9" height="1"/>
<rect x="215.3" y="136.3" fill="#FFFFFF" width="12.9" height="1"/>
<rect x="215.3" y="139.7" fill="#FFFFFF" width="12.9" height="1"/>
<rect x="215.3" y="142.9" fill="#FFFFFF" width="8.2" height="1"/>
<rect x="249.8" y="133.1" fill="#FFFFFF" width="12.9" height="1"/>
<rect x="249.8" y="136.3" fill="#FFFFFF" width="12.9" height="1"/>
<rect x="249.8" y="139.7" fill="#FFFFFF" width="12.9" height="1"/>
<rect x="249.8" y="142.9" fill="#FFFFFF" width="8.2" height="1"/>
<polygon fill="#F58131" points="255.8,160.8 240.6,169.6 240.6,169.6 271,187.1 271,169.6 "/>
<path fill="#F26322" d="M186.7,162.1l14.1,8.2v16.3l-14.1,8.2l-14.1-8.3v-16.3L186.7,162.1 M186.7,160.8l-15.2,8.8v17.6l15.2,8.8
	l15.2-8.8v-17.6L186.7,160.8L186.7,160.8L186.7,160.8z"/>
<path fill="#FFFFFF" d="M156.5,187.4c-0.6,0.3-1.4,0.4-2,0.5c0.7-0.4,1.3-1.2,1.6-1.9c-0.7,0.4-1.5,0.7-2.2,0.8
	c-1.4-1.4-3.6-1.5-4.9-0.1c-0.8,0.8-1.3,2.1-1,3.2c-2.8-0.1-5.4-1.5-7.2-3.7c-0.9,1.6-0.5,3.7,1,4.6c-0.5,0-1-0.1-1.6-0.4l0,0
	c0,1.7,1.2,3,2.8,3.5c-0.5,0.1-1,0.2-1.6,0.1c0.4,1.5,1.8,2.4,3.2,2.4c-1.3,0.9-2.7,1.5-4.3,1.5c-0.3,0-0.5,0-0.8,0
	c4.6,2.9,10.8,1.6,13.7-3c1-1.6,1.6-3.5,1.6-5.3c0-0.1,0-0.3,0-0.4C155.5,188.8,156,188.1,156.5,187.4z"/>
<path fill="#F26322" d="M186.7,180.4c1.4,0,2.5-1.2,2.5-2.5l0,0V173c0-1.4-1.2-2.5-2.5-2.5s-2.5,1.2-2.5,2.5v4.9
	C184.2,179.3,185.4,180.4,186.7,180.4L186.7,180.4z M185.8,172.9c-0.1-0.5,0.3-1,0.8-1s1,0.3,1,0.8c0,0.1,0,0.1,0,0.2v5.1
	c0,0.5-0.4,0.9-0.9,0.9c-0.5,0-0.9-0.4-0.9-0.9L185.8,172.9L185.8,172.9z M191.1,178c-0.1,2.4-2.2,4.3-4.6,4.2
	c-2.3-0.1-4.1-1.9-4.2-4.2H181c0.1,2.8,2.2,5.1,4.9,5.5v2.7h1.7v-2.7c2.7-0.4,4.8-2.7,4.9-5.5H191.1L191.1,178z"/>
<path fill="#FD5000" d="M321.2,289c2.6,0,4.7-2.1,4.7-4.7l0,0v-9.5c0.1-2.6-1.9-4.8-4.5-4.9c-2.6-0.1-4.8,1.9-4.9,4.5
	c0,0.1,0,0.3,0,0.4v9.5C316.5,286.9,318.6,289,321.2,289L321.2,289z M319.3,274.6c0-1,0.8-1.9,1.9-1.9s1.9,0.8,1.9,1.9l0,0v9.8
	c0,1-0.8,1.9-1.9,1.9s-1.9-0.8-1.9-1.9V274.6L319.3,274.6z M329.5,284.3c0,4.6-3.8,8.4-8.4,8.4s-8.4-3.8-8.4-8.4h-2.7
	c0.1,5.3,4.2,9.8,9.4,10.6v5.1h3.1v-5.1c5.3-0.7,9.3-5.2,9.5-10.6H329.5z"/>
<polygon fill="#F26322" points="206.6,186.8 206.6,169.9 221.3,161.5 235.9,169.9 235.9,186.8 221.3,195.2 "/>
<path fill="#F26322" d="M221.3,162.1l14.1,8.2v16.3l-14.1,8.2l-14.1-8.3v-16.3L221.3,162.1 M221.3,160.8l-15.2,8.8v17.6l15.2,8.8
	l15.2-8.8v-17.6L221.3,160.8L221.3,160.8L221.3,160.8z"/>
<path fill="#FFFFFF" d="M221.3,180.4c1.4,0,2.5-1.2,2.5-2.5l0,0V173c0-1.4-1.2-2.5-2.5-2.5c-1.4,0-2.5,1.2-2.5,2.5v4.9
	C218.8,179.3,219.9,180.4,221.3,180.4L221.3,180.4z M220.3,172.9c-0.1-0.5,0.3-1,0.8-1c0.5,0,1,0.3,1,0.8c0,0.1,0,0.1,0,0.2v5.1
	c0,0.5-0.4,0.9-0.9,0.9s-0.9-0.4-0.9-0.9L220.3,172.9L220.3,172.9z M225.7,178c-0.1,2.4-2.2,4.3-4.6,4.2c-2.3-0.1-4.1-1.9-4.2-4.2
	h-1.4c0.1,2.8,2.2,5.1,4.9,5.5v2.7h1.7v-2.7c2.7-0.4,4.8-2.7,4.9-5.5H225.7L225.7,178z"/>
<path fill="#FFFFFF" d="M255.8,180.4c1.4,0,2.5-1.2,2.5-2.5l0,0V173c0-1.4-1.2-2.5-2.5-2.5s-2.5,1.2-2.5,2.5v4.9
	C253.3,179.3,254.4,180.4,255.8,180.4L255.8,180.4z M254.8,172.9c-0.1-0.5,0.3-1,0.8-1s1,0.3,1,0.8c0,0.1,0,0.1,0,0.2v5.1
	c0,0.5-0.4,0.9-0.9,0.9c-0.5,0-0.9-0.4-0.9-0.9L254.8,172.9L254.8,172.9z M260.2,178c-0.1,2.4-2.2,4.3-4.6,4.2
	c-2.3-0.1-4.1-1.9-4.2-4.2H250c0.1,2.8,2.2,5.1,4.9,5.5v2.7h1.7v-2.7c2.7-0.4,4.8-2.7,4.9-5.5H260.2L260.2,178z"/>
<polygon fill="#F58131" points="255.8,200.6 240.6,209.4 240.6,209.4 271,226.8 271,209.4 "/>
<path fill="#F26322" d="M186.7,201.8l14.1,8.2v16.3l-14.1,8.2l-14.1-8.2V210L186.7,201.8 M186.7,200.6l-15.2,8.8v17.6l15.2,8.8
	l15.2-8.8v-17.6L186.7,200.6L186.7,200.6L186.7,200.6z"/>
<polygon fill="#F26322" points="206.6,226.5 206.6,209.7 221.3,201.2 235.9,209.7 235.9,226.5 221.3,235 "/>
<path fill="#F26322" d="M221.3,201.8l14.1,8.2v16.3l-14.1,8.2l-14.1-8.2V210L221.3,201.8 M221.3,200.6l-15.2,8.8v17.6l15.2,8.8
	l15.2-8.8v-17.6L221.3,200.6L221.3,200.6L221.3,200.6z"/>
<polygon fill="#F58131" points="255.8,239.3 240.6,248.1 240.6,248.1 271,265.5 271,248.1 "/>
<path fill="#F26322" d="M186.7,241.6l14.1,8.2v16.3l-14.1,8.2l-14.1-8.2v-16.3L186.7,241.6 M186.7,240.3l-15.2,8.8v17.5l15.2,8.8
	l15.2-8.8v-17.5L186.7,240.3L186.7,240.3z"/>
<polygon fill="#F26322" points="206.6,266.3 206.6,249.4 221.3,241 235.9,249.4 235.9,266.3 221.3,274.8 "/>
<path fill="#F26322" d="M221.3,241.6l14.1,8.2v16.3l-14.1,8.2l-14.1-8.2v-16.3L221.3,241.6 M221.3,240.3l-15.2,8.8v17.5l15.2,8.8
	l15.2-8.8v-17.5L221.3,240.3L221.3,240.3z"/>
<polygon fill="#F58131" points="255.8,280.1 240.6,288.9 240.6,288.9 271,306.3 271,288.9 "/>
<path fill="#F26322" d="M186.7,281.3l14.1,8.2v16.3l-14.1,8.2l-14.1-8.2v-16.3L186.7,281.3 M186.7,280.1l-15.2,8.8v17.6l15.2,8.8
	l15.2-8.8v-17.6L186.7,280.1L186.7,280.1z"/>
<path fill="#F26322" d="M236.4,288.9v17.6l-15.2,8.8l-15.2-8.8v-17.6l15.2-8.8L236.4,288.9z"/>
<path fill="#CCCCCC" d="M321.2,122.3l45,25.9v51.9l-45,25.9l-45-25.9v-51.9L321.2,122.3 M321.2,121.1l-46,26.6v53.1l46,26.6l46-26.6
	v-53.1L321.2,121.1L321.2,121.1z"/>
<rect x="405.8" y="164.4" fill="#FFFFFF" width="23.3" height="1.9"/>
<rect x="405.8" y="170.3" fill="#FFFFFF" width="23.3" height="1.9"/>
<rect x="405.8" y="176.3" fill="#FFFFFF" width="23.3" height="1.9"/>
<rect x="405.8" y="182.2" fill="#FFFFFF" width="14.6" height="1.9"/>
<path fill="#CCCCCC" d="M321.2,233.2l45,25.9v51.9l-45,25.9l-45-25.9v-51.9L321.2,233.2 M321.2,232l-46,26.6v53.1l46,26.6l46-26.6
	v-53.1L321.2,232L321.2,232L321.2,232z"/>
<polygon fill="#5733DB" points="417.4,232 463.4,258.5 463.4,311.7 417.4,338.3 371.4,311.7 371.4,258.5 "/>
<path fill="#CCCCCC" d="M321.2,344.1l45,26v52l-45,25.9l-45-25.9v-52.1L321.2,344.1 M321.2,342.9l-46,26.6v53.1l46,26.6l46-26.6
	v-53.1L321.2,342.9L321.2,342.9L321.2,342.9z"/>
<polygon fill="#5733DB" points="417.4,342.9 463.4,369.4 463.4,422.6 417.4,449.1 371.4,422.6 371.4,369.4 "/>
<path fill="#CCCCCC" d="M321.2,455l45,26v51.9l-45,25.9l-45-25.9v-52L321.2,455 M321.2,453.7l-46,26.6v53.1l46,26.6l46-26.6v-53.1
	L321.2,453.7L321.2,453.7L321.2,453.7z"/>
<polygon fill="#5733DB" points="417.4,453.7 463.4,480.3 463.4,533.5 417.4,560 371.4,533.5 371.4,480.3 "/>
<path fill="#CCCCCC" d="M321.2,565.9l45,26v51.9l-45,25.9l-45-25.9v-52L321.2,565.9 M321.2,564.6l-46,26.6v53.1l46,26.6l46-26.6
	v-53.1L321.2,564.6L321.2,564.6L321.2,564.6z"/>
<polygon fill="#5733DB" points="417.4,564.6 463.4,591.2 463.4,644.4 417.4,670.9 371.4,644.4 371.4,591.2 "/>
<path fill="#FFFFFF" d="M417.4,289c2.6,0,4.7-2.1,4.7-4.7l0,0v-9.5c-0.1-2.6-2.3-4.6-4.9-4.5c-2.4,0.1-4.4,2.1-4.5,4.5v9.5
	C412.7,286.9,414.8,289,417.4,289L417.4,289z M415.5,274.6c0-1,0.8-1.9,1.9-1.9s1.9,0.8,1.9,1.9l0,0v9.8c0,1-0.8,1.9-1.9,1.9
	s-1.9-0.8-1.9-1.9V274.6L415.5,274.6z M425.8,284.3c0,4.6-3.8,8.4-8.4,8.4s-8.4-3.8-8.4-8.4h-2.7c0.1,5.3,4.2,9.8,9.4,10.6v5.1h3.1
	v-5.1c5.3-0.7,9.3-5.2,9.5-10.6H425.8z"/>
<path fill="#F26322" d="M186.7,212c3.3,0,6.2,2.7,6.2,6.2s-2.7,6.2-6.2,6.2c-3.5,0-6.2-2.7-6.2-6.2S183.4,212,186.7,212
	 M186.7,210.6c-4.1,0-7.4,3.3-7.4,7.4s3.3,7.4,7.4,7.4c4.1,0,7.4-3.3,7.4-7.4S190.8,210.6,186.7,210.6L186.7,210.6L186.7,210.6z"/>
<polygon fill="#F26322" points="190,218.2 185.1,220.9 185.1,215.3 "/>
<path fill="#FD5000" d="M321.2,384.9c6.6,0,11.8,5.3,11.8,11.8c0,6.6-5.3,11.8-11.8,11.8c-6.6,0-11.8-5.3-11.8-11.8
	C309.3,390.1,314.7,384.9,321.2,384.9 M321.2,382.3c-8,0-14.3,6.4-14.3,14.3s6.4,14.3,14.3,14.3s14.3-6.4,14.3-14.3
	C335.5,388.8,329.1,382.4,321.2,382.3L321.2,382.3L321.2,382.3L321.2,382.3z"/>
<polygon fill="#FD5000" points="327.4,396.7 318,402.2 318,391.3 "/>
<path fill="#FFFFFF" d="M221.3,212c3.3,0,6.2,2.7,6.2,6.2s-2.7,6.2-6.2,6.2s-6.2-2.7-6.2-6.2S217.9,212,221.3,212 M221.3,210.6
	c-4.1,0-7.4,3.3-7.4,7.4s3.3,7.4,7.4,7.4c4.1,0,7.4-3.3,7.4-7.4S225.3,210.6,221.3,210.6L221.3,210.6L221.3,210.6z"/>
<polygon fill="#FFFFFF" points="224.5,218.2 219.6,220.9 219.6,215.3 "/>
<path fill="#FFFFFF" d="M255.8,212c3.3,0,6.2,2.7,6.2,6.2s-2.7,6.2-6.2,6.2c-3.5,0-6.2-2.7-6.2-6.2S252.4,212,255.8,212
	 M255.8,210.6c-4.1,0-7.4,3.3-7.4,7.4s3.3,7.4,7.4,7.4s7.4-3.3,7.4-7.4S259.9,210.6,255.8,210.6L255.8,210.6L255.8,210.6z"/>
<polygon fill="#FFFFFF" points="259,218.2 254.1,220.9 254.1,215.3 "/>
<path fill="#F26322" d="M193.4,250.8h-0.1c-0.9,0-1.8,0.8-1.8,1.8c0,0.4,0.2,0.9,0.5,1.3l-2.3,3.9h-0.3h-0.1c-0.4,0-0.8,0.2-1.3,0.5
	l-2.4-1.4c0.2-0.9-0.4-1.9-1.5-2.1c-0.1,0-0.1,0-0.2,0l0,0c-0.9,0-1.8,0.8-1.8,1.8c0,0.4,0.2,0.9,0.5,1.3l-2.3,3.9h-0.3H180
	c-0.9,0-1.8,0.7-1.9,1.7c-0.1,0.9,0.7,1.8,1.7,1.9h0.1c0.9,0,1.8-0.8,1.8-1.8c0-0.4-0.2-0.9-0.5-1.3l2.3-3.9h0.3h0.1
	c0.5,0,0.9-0.2,1.3-0.5l2.3,1.4c-0.2,0.9,0.4,1.9,1.4,2.1c0.1,0,0.2,0,0.3,0l0,0c0.9,0,1.8-0.8,1.8-1.8c0-0.4-0.2-0.9-0.5-1.3
	l2.3-3.9h0.3h0.1c0.9,0,1.8-0.7,1.9-1.7C195.2,251.6,194.5,250.9,193.4,250.8z M180.1,263.9L180.1,263.9c-0.4,0-0.7-0.3-0.7-0.7
	c0-0.4,0.3-0.7,0.7-0.7h0.1c0.4,0,0.7,0.3,0.7,0.7C180.9,263.6,180.6,263.9,180.1,263.9z M184.1,257.1L184.1,257.1
	c-0.4,0-0.7-0.3-0.7-0.7s0.3-0.7,0.7-0.7h0.1c0.4,0,0.7,0.3,0.7,0.7C184.9,256.8,184.5,257.1,184.1,257.1z M190.2,259.4
	c0,0.4-0.3,0.7-0.7,0.6h-0.1c-0.4,0-0.7-0.3-0.7-0.7s0.3-0.7,0.7-0.7h0.1C189.8,258.6,190.1,259,190.2,259.4
	C190.1,259.4,190.1,259.4,190.2,259.4L190.2,259.4z M194.1,252.6c0,0.4-0.3,0.7-0.7,0.7h-0.1c-0.4,0-0.7-0.3-0.7-0.7
	s0.3-0.7,0.7-0.7l0,0h0.1C193.7,251.8,194.1,252.2,194.1,252.6L194.1,252.6L194.1,252.6z"/>
<path fill="#FD5000" d="M334,493.3h-0.2c-1.9,0-3.5,1.6-3.3,3.5c0,0.8,0.3,1.7,0.9,2.3l-4.3,7.3c-0.2,0-0.3-0.1-0.5-0.1h-0.2
	c-0.8,0-1.7,0.3-2.3,0.9l-4.5-2.6c0.3-1.9-0.8-3.7-2.7-4c-0.1,0-0.3,0-0.4,0h-0.2c-1.9,0-3.5,1.6-3.5,3.5c0,0.8,0.3,1.7,0.9,2.3
	l-4.3,7.3c-0.2,0-0.3-0.1-0.5-0.1h-0.2c-1.9,0-3.3,1.6-3.3,3.5c0,1.8,1.4,3.2,3.1,3.3h0.2c1.9,0,3.5-1.6,3.3-3.5
	c0-0.8-0.3-1.7-0.9-2.3l4.3-7.3c0.2,0,0.3,0.1,0.5,0.1h0.2c0.9,0,1.8-0.4,2.4-1l4.4,2.6c-0.4,1.8,0.6,3.7,2.5,4.1
	c0.2,0,0.4,0.1,0.6,0.1h0.2c1.9,0,3.5-1.6,3.5-3.5c0-0.8-0.3-1.7-0.9-2.3l4.3-7.3c0.2,0,0.3,0.1,0.5,0.1h0.2
	c1.9,0.1,3.5-1.5,3.6-3.3C337.5,495,335.9,493.4,334,493.3L334,493.3z M308.5,518.4h-0.1c-0.7,0-1.4-0.6-1.4-1.5
	c0-0.7,0.6-1.4,1.5-1.4h0.1c0.7,0,1.4,0.6,1.4,1.5S309.3,518.5,308.5,518.4L308.5,518.4L308.5,518.4z M316,505.4h-0.1
	c-0.7,0-1.4-0.6-1.4-1.5c0-0.7,0.6-1.4,1.5-1.4l0,0h0.1c0.7,0,1.4,0.6,1.4,1.5S316.9,505.4,316,505.4L316,505.4z M327.7,509.8
	c-0.1,0.7-0.6,1.3-1.4,1.4h-0.1c-0.7,0-1.4-0.6-1.4-1.5c0-0.7,0.6-1.4,1.5-1.4l0,0h0.1C327.1,508.5,327.8,509.1,327.7,509.8
	L327.7,509.8z M335.2,496.8c-0.1,0.7-0.6,1.3-1.4,1.4h-0.1c-0.7,0-1.4-0.6-1.4-1.5c0-0.7,0.6-1.4,1.5-1.4h0.1
	C334.7,495.4,335.3,496.1,335.2,496.8L335.2,496.8z"/>
<path fill="#FFFFFF" d="M228,250.8h-0.1c-0.9,0-1.8,0.8-1.8,1.8c0,0.4,0.2,0.9,0.5,1.3l-2.3,3.9H224h-0.1c-0.4,0-0.8,0.2-1.3,0.5
	l-2.4-1.4c0.2-0.9-0.4-1.9-1.5-2.1c-0.1,0-0.1,0-0.2,0l0,0c-0.9,0-1.8,0.8-1.8,1.8c0,0.4,0.2,0.9,0.5,1.3l-2.3,3.9h-0.3h-0.1
	c-0.9,0-1.8,0.7-1.9,1.7c-0.1,0.9,0.7,1.8,1.7,1.9h0.1c0.9,0,1.8-0.8,1.8-1.8c0-0.4-0.2-0.9-0.5-1.3l2.3-3.9h0.3h0.1
	c0.5,0,0.9-0.2,1.3-0.5l2.3,1.4c-0.2,0.9,0.4,1.9,1.4,2.1c0.1,0,0.2,0,0.3,0l0,0c0.9,0,1.8-0.8,1.8-1.8c0-0.4-0.2-0.9-0.5-1.3
	l2.3-3.9h0.3h0.1c0.9,0,1.8-0.7,1.9-1.7C229.7,251.6,229,250.9,228,250.8z M214.7,263.9L214.7,263.9c-0.4,0-0.7-0.3-0.7-0.7
	c0-0.4,0.3-0.7,0.7-0.7h0.1c0.4,0,0.7,0.3,0.7,0.7C215.4,263.6,215.1,263.9,214.7,263.9z M218.6,257.1L218.6,257.1
	c-0.4,0-0.7-0.3-0.7-0.7s0.3-0.7,0.7-0.7h0.1c0.4,0,0.7,0.3,0.7,0.7C219.4,256.8,219.1,257.1,218.6,257.1z M224.7,259.4
	c0,0.4-0.3,0.7-0.7,0.6h-0.1c-0.4,0-0.7-0.3-0.7-0.7s0.3-0.7,0.7-0.7h0.1C224.3,258.6,224.6,259,224.7,259.4
	C224.6,259.4,224.6,259.4,224.7,259.4L224.7,259.4z M228.6,252.6c0,0.4-0.3,0.7-0.7,0.7h-0.1c-0.4,0-0.7-0.3-0.7-0.7
	s0.3-0.7,0.7-0.7h0.1C228.3,251.8,228.6,252.2,228.6,252.6L228.6,252.6L228.6,252.6z"/>
<path fill="#FFFFFF" d="M262.5,250.8h-0.1c-0.9,0-1.8,0.8-1.8,1.8c0,0.4,0.2,0.9,0.5,1.3l-2.3,3.9h-0.3h-0.1c-0.4,0-0.8,0.2-1.3,0.5
	l-2.4-1.4c0.2-0.9-0.4-1.9-1.5-2.1c-0.1,0-0.1,0-0.2,0l0,0c-0.9,0-1.8,0.8-1.8,1.8c0,0.4,0.2,0.9,0.5,1.3l-2.3,3.9h-0.3h-0.1
	c-0.9,0-1.8,0.7-1.9,1.7c-0.1,0.9,0.7,1.8,1.7,1.9h0.1c0.9,0,1.8-0.8,1.8-1.8c0-0.4-0.2-0.9-0.5-1.3l2.3-3.9h0.3h0.1
	c0.5,0,0.9-0.2,1.3-0.5l2.3,1.4c-0.2,0.9,0.4,1.9,1.4,2.1c0.1,0,0.2,0,0.3,0l0,0c0.9,0,1.8-0.8,1.8-1.8c0-0.4-0.2-0.9-0.5-1.3
	l2.3-3.9h0.3h0.1c0.9,0,1.8-0.7,1.9-1.7C264.3,251.6,263.5,250.9,262.5,250.8z M249.2,263.9L249.2,263.9c-0.4,0-0.7-0.3-0.7-0.7
	c0-0.4,0.3-0.7,0.7-0.7h0.1c0.4,0,0.7,0.3,0.7,0.7C249.9,263.6,249.6,263.9,249.2,263.9z M253.2,257.1L253.2,257.1
	c-0.4,0-0.7-0.3-0.7-0.7s0.3-0.7,0.7-0.7h0.1c0.4,0,0.7,0.3,0.7,0.7C253.9,256.8,253.6,257.1,253.2,257.1z M259.2,259.4
	c0,0.4-0.3,0.7-0.7,0.6h-0.1c-0.4,0-0.7-0.3-0.7-0.7s0.3-0.7,0.7-0.7h0.1C258.8,258.6,259.1,259,259.2,259.4
	C259.1,259.4,259.1,259.4,259.2,259.4L259.2,259.4z M263.1,252.6c0,0.4-0.3,0.7-0.7,0.7h-0.1c-0.4,0-0.7-0.3-0.7-0.7
	s0.3-0.7,0.7-0.7h0.1C262.8,251.8,263.1,252.2,263.1,252.6L263.1,252.6L263.1,252.6z"/>
<path fill="#F26322" d="M193.9,295.3c-0.1-0.1-0.2-0.1-0.3-0.1h-7.7l-4.2-4.2c-0.2-0.2-0.6-0.2-0.8,0c-0.2,0.2-0.2,0.6,0,0.8
	l3.3,3.3h-4.2c-0.3,0-0.5,0.2-0.6,0.6v2c0,4.1,3.2,7.3,7.3,7.3s7.3-3.2,7.3-7.3v-2C194.1,295.6,194,295.5,193.9,295.3z M186.7,303.4
	c-2.7,0-5.1-1.8-6-4.5h11.9C191.9,301.5,189.5,303.4,186.7,303.4L186.7,303.4z M192.9,297.7v0.1h-12.3v-0.1c0-0.2,0-0.3,0-0.5
	s0-0.3,0-0.5v-0.3h12.3v0.3c0,0.2,0,0.3,0,0.5S192.9,297.5,192.9,297.7L192.9,297.7z"/>
<path fill="#FD5000" d="M335.7,613.1c-0.2-0.2-0.4-0.2-0.7-0.2h-15.5l-8.5-8.5c-0.4-0.4-1.2-0.4-1.7,0s-0.4,1.2,0,1.7l6.8,6.8h-8.3
	c-0.6,0-1.2,0.5-1.2,1.2v4c0.5,8.2,7.5,14.2,15.7,13.7c7.4-0.5,13.3-6.4,13.7-13.7v-4C336.1,613.6,335.9,613.3,335.7,613.1z
	 M321.4,629.2c-5.5,0-10.4-3.7-11.9-8.9h23.9C331.8,625.6,326.9,629.2,321.4,629.2L321.4,629.2z M333.8,617.8v0.2H309v-0.2
	c0-0.3,0-0.6,0-0.9s0-0.6,0-0.9v-0.7h24.8v0.7c0,0.3,0,0.6,0,0.9S333.8,617.5,333.8,617.8L333.8,617.8z"/>
<path fill="#FFFFFF" d="M228.4,295.3c-0.1-0.1-0.2-0.1-0.3-0.1h-7.7l-4.2-4.2c-0.2-0.2-0.6-0.2-0.8,0s-0.2,0.6,0,0.8l3.3,3.3h-4.2
	c-0.3,0-0.5,0.2-0.6,0.6v2c0,4.1,3.2,7.3,7.3,7.3c4.1,0,7.3-3.2,7.3-7.3v-2C228.6,295.6,228.5,295.5,228.4,295.3z M221.3,303.4
	c-2.7,0-5.1-1.8-6-4.5h11.9C226.4,301.5,224,303.4,221.3,303.4L221.3,303.4z M227.4,297.7v0.1h-12.3v-0.1c0-0.2,0-0.3,0-0.5
	s0-0.3,0-0.5v-0.3h12.3v0.3c0,0.2,0,0.3,0,0.5S227.4,297.5,227.4,297.7L227.4,297.7z"/>
<path fill="#FFFFFF" d="M262.9,295.3c-0.1-0.1-0.2-0.1-0.3-0.1h-7.7l-4.2-4.2c-0.2-0.2-0.6-0.2-0.8,0c-0.2,0.2-0.2,0.6,0,0.8
	l3.3,3.3H249c-0.3,0-0.5,0.2-0.6,0.6v2c0,4.1,3.2,7.3,7.3,7.3s7.3-3.2,7.3-7.3v-2C263.1,295.6,263,295.5,262.9,295.3z M255.8,303.4
	c-2.7,0-5.1-1.8-6-4.5h11.9C260.9,301.5,258.5,303.4,255.8,303.4L255.8,303.4z M262,297.7v0.1h-12.3v-0.1c0-0.2,0-0.3,0-0.5
	s0-0.3,0-0.5v-0.3H262v0.3c0,0.2,0,0.3,0,0.5S262,297.5,262,297.7L262,297.7z"/>
<path fill="#FFFFFF" d="M417.4,384.9c6.6,0,11.8,5.3,11.8,11.8c0,6.6-5.3,11.8-11.8,11.8c-6.6,0-11.8-5.3-11.8-11.8
	C405.6,390.1,410.9,384.9,417.4,384.9 M417.4,382.3c-8,0-14.3,6.4-14.3,14.3s6.4,14.3,14.3,14.3s14.3-6.4,14.3-14.3
	C431.7,388.8,425.4,382.4,417.4,382.3L417.4,382.3L417.4,382.3L417.4,382.3z"/>
<polygon fill="#FFFFFF" points="423.7,396.7 414.3,402.2 414.3,391.3 "/>
<path fill="#FFFFFF" d="M430.3,493.3h-0.2c-1.9,0-3.5,1.6-3.3,3.5c0,0.8,0.3,1.7,0.9,2.3l-4.3,7.3c-0.2,0-0.3-0.1-0.5-0.1h-0.2
	c-0.8,0-1.7,0.3-2.3,0.9l-4.5-2.6c0.3-1.9-0.8-3.7-2.7-4c-0.1,0-0.3,0-0.4,0h-0.2c-1.9,0-3.5,1.6-3.5,3.5c0,0.8,0.3,1.7,0.9,2.3
	l-4.3,7.3c-0.2,0-0.3-0.1-0.5-0.1H405c-1.9,0-3.3,1.6-3.3,3.5c0,1.8,1.4,3.2,3.1,3.3h0.2c1.9,0,3.5-1.6,3.3-3.5
	c0-0.8-0.3-1.7-0.9-2.3l4.3-7.3c0.2,0,0.3,0.1,0.5,0.1h0.2c0.9,0,1.8-0.4,2.4-1l4.4,2.6c-0.4,1.8,0.6,3.7,2.5,4.1
	c0.2,0,0.4,0.1,0.6,0.1h0.2c1.9,0,3.5-1.6,3.5-3.5c0-0.8-0.3-1.7-0.9-2.3l4.3-7.3c0.2,0,0.3,0.1,0.5,0.1h0.2
	c1.9,0.1,3.5-1.5,3.6-3.3C433.7,495,432.2,493.4,430.3,493.3L430.3,493.3z M404.8,518.4h-0.1c-0.7,0-1.4-0.6-1.4-1.5
	c0-0.7,0.6-1.4,1.5-1.4h0.1c0.7,0,1.4,0.6,1.4,1.5S405.6,518.5,404.8,518.4L404.8,518.4L404.8,518.4z M412.3,505.4h-0.1
	c-0.7,0-1.4-0.6-1.4-1.5c0-0.7,0.6-1.4,1.5-1.4l0,0h0.1c0.7,0,1.4,0.6,1.4,1.5S413.1,505.4,412.3,505.4L412.3,505.4z M423.9,509.8
	c-0.1,0.7-0.6,1.3-1.4,1.4h-0.1c-0.7,0-1.4-0.6-1.4-1.5c0-0.7,0.6-1.4,1.5-1.4l0,0h0.1C423.4,508.5,424,509.1,423.9,509.8
	L423.9,509.8z M431.4,496.8c-0.1,0.7-0.6,1.3-1.4,1.4H430c-0.7,0-1.4-0.6-1.4-1.5c0-0.7,0.6-1.4,1.5-1.4h0.1
	C430.9,495.4,431.5,496.1,431.4,496.8L431.4,496.8z"/>
<path fill="#FFFFFF" d="M432,613.1c-0.2-0.2-0.4-0.2-0.7-0.2h-15.5l-8.5-8.5c-0.4-0.4-1.2-0.4-1.7,0s-0.4,1.2,0,1.7l6.8,6.8h-8.3
	c-0.6,0-1.2,0.5-1.2,1.2v4c0.5,8.2,7.5,14.2,15.7,13.7c7.4-0.5,13.3-6.4,13.7-13.7v-4C432.4,613.6,432.2,613.3,432,613.1z
	 M417.6,629.2c-5.5,0-10.4-3.7-11.9-8.9h23.9C428.1,625.6,423.2,629.2,417.6,629.2L417.6,629.2z M430.1,617.8v0.2h-24.8v-0.2
	c0-0.3,0-0.6,0-0.9s0-0.6,0-0.9v-0.7h24.8v0.7c0,0.3,0,0.6,0,0.9S430.1,617.5,430.1,617.8L430.1,617.8z"/>
<path fill="#010101" d="M10.5,648.1H9.8l-0.2-0.2c2-2.3,1.7-5.8-0.6-7.6c-2.3-1.9-5.8-1.7-7.6,0.6c-1.9,2.3-1.7,5.8,0.6,7.6
	c2.1,1.8,5,1.8,7.1,0l0.2,0.2v0.6l4.2,4.2l1.3-1.3L10.5,648.1z M5.4,648.1c-2.1,0-3.8-1.7-3.8-3.8s1.7-3.8,3.8-3.8s3.8,1.7,3.8,3.8
	S7.5,648.1,5.4,648.1L5.4,648.1z"/>
<path fill="#010101" d="M48.5,644.7h-1l-0.4-0.4c3.2-3.8,2.8-9.4-0.9-12.7c-3.8-3.2-9.4-2.8-12.7,0.9c-3.2,3.8-2.8,9.4,0.9,12.7
	c3.3,2.9,8.3,2.9,11.7,0l0.4,0.4v1l6.8,6.9l2.1-2.1L48.5,644.7z M40.3,644.7c-3.5,0-6.2-2.8-6.2-6.2c0-3.5,2.8-6.2,6.2-6.2
	c3.5,0,6.2,2.8,6.2,6.2C46.6,641.8,43.7,644.7,40.3,644.7C40.4,644.7,40.4,644.7,40.3,644.7z"/>
<polygon fill="#5733DB" points="577,121.1 612,141.3 612,181.7 577,202 541.9,181.7 541.9,141.3 "/>
<rect x="493.8" y="154" fill="#FD5000" width="17.8" height="1.5"/>
<rect x="493.8" y="158.5" fill="#FD5000" width="17.8" height="1.5"/>
<rect x="493.8" y="163.1" fill="#FD5000" width="17.8" height="1.5"/>
<rect x="493.8" y="167.6" fill="#FD5000" width="11.2" height="1.5"/>
<path fill="#FD5000" d="M502.7,249.2c2,0,3.6-1.6,3.6-3.6l0,0v-7.2c0.1-2-1.5-3.7-3.5-3.8c-2-0.1-3.7,1.5-3.8,3.5c0,0.1,0,0.2,0,0.4
	v7.2C499,247.7,500.7,249.2,502.7,249.2L502.7,249.2z M501.2,238.2c0-0.8,0.6-1.5,1.5-1.5s1.5,0.6,1.5,1.5v7.4
	c0,0.8-0.6,1.5-1.5,1.5s-1.5-0.6-1.5-1.5l0,0V238.2L501.2,238.2z M509.1,245.6c0,3.6-2.8,6.4-6.4,6.4s-6.4-2.8-6.4-6.4h-2.1
	c0.1,4.1,3.1,7.5,7.2,8.1v4h2.4v-4c4.1-0.5,7.1-4,7.2-8.1H509.1L509.1,245.6z"/>
<path fill="#CCCCCC" d="M502.7,122.3l34,19.6v39.2l-34,19.7l-34-19.7v-39.2L502.7,122.3 M502.7,121.1l-35,20.2v40.5l35,20.2l35-20.2
	v-40.5L502.7,121.1L502.7,121.1z"/>
<rect x="568.1" y="154" fill="#FFFFFF" width="17.8" height="1.5"/>
<rect x="568.1" y="158.5" fill="#FFFFFF" width="17.8" height="1.5"/>
<rect x="568.1" y="163.1" fill="#FFFFFF" width="17.8" height="1.5"/>
<rect x="568.1" y="167.6" fill="#FFFFFF" width="11.2" height="1.5"/>
<path fill="#CCCCCC" d="M502.7,207.1l34,19.7V266l-34,19.7l-34-19.8v-39.2L502.7,207.1 M502.7,205.8l-35,20.2v40.5l35,20.2l35-20.2
	V226L502.7,205.8L502.7,205.8z"/>
<polygon fill="#5733DB" points="577,205.8 612,226 612,266.5 577,286.8 541.9,266.5 541.9,226 "/>
<path fill="#CCCCCC" d="M502.7,291.8l34,19.7v39.2l-34,19.7l-34-19.8v-39.2L502.7,291.8 M502.7,290.5l-35,20.2v40.5l35,20.2l35-20.2
	v-40.5L502.7,290.5L502.7,290.5L502.7,290.5z"/>
<polygon fill="#5733DB" points="577,290.5 612,310.7 612,351.2 577,371.5 541.9,351.2 541.9,310.7 "/>
<path fill="#CCCCCC" d="M502.7,376.5l34,19.7v39.2l-34,19.7l-34-19.7v-39.2L502.7,376.5 M502.7,375.3l-35,20.2V436l35,20.2l35-20.2
	v-40.5L502.7,375.3L502.7,375.3L502.7,375.3z"/>
<polygon fill="#5733DB" points="577,375.3 612,395.5 612,436 577,456.3 541.9,436 541.9,395.5 "/>
<path fill="#CCCCCC" d="M502.7,461.3l34,19.7v39.2l-34,19.7l-34-19.7v-39.2L502.7,461.3 M502.7,460l-35,20.2v40.5l35,20.2l35-20.2
	v-40.5L502.7,460L502.7,460z"/>
<polygon fill="#5733DB" points="577,460 612,480.2 612,520.7 577,541 541.9,520.7 541.9,480.2 "/>
<path fill="#FFFFFF" d="M577,249.2c2,0,3.6-1.6,3.6-3.6l0,0v-7.2c-0.1-2-1.8-3.6-3.8-3.5c-1.9,0.1-3.3,1.6-3.5,3.5v7.2
	C573.3,247.7,575,249.2,577,249.2L577,249.2z M575.5,238.2c0-0.8,0.6-1.5,1.5-1.5s1.5,0.6,1.5,1.5v7.4c0,0.8-0.6,1.5-1.5,1.5
	s-1.5-0.6-1.5-1.5l0,0V238.2L575.5,238.2z M583.3,245.6c0,3.6-2.8,6.4-6.4,6.4c-3.6,0-6.4-2.8-6.4-6.4h-2.1c0.1,4.1,3.1,7.5,7.2,8.1
	v4h2.4v-4c4.1-0.5,7.1-4,7.2-8.1H583.3L583.3,245.6z"/>
<path fill="#FD5000" d="M502.7,322.6c5,0,9,4.1,9,9s-4.1,9-9,9c-5,0-9-4.1-9-9l0,0C493.7,326.5,497.7,322.6,502.7,322.6
	 M502.7,320.7c-6.1,0-10.9,4.9-10.9,11s4.9,10.9,11,10.9c6.1,0,10.9-4.9,10.9-11C513.7,325.5,508.7,320.6,502.7,320.7L502.7,320.7
	L502.7,320.7L502.7,320.7z"/>
<polygon fill="#FD5000" points="507.5,331.6 500.3,335.6 500.3,327.4 "/>
<path fill="#FD5000" d="M512.5,405.4h-0.2c-1.5,0-2.6,1.2-2.6,2.6c0,0.6,0.2,1.3,0.7,1.8l-3.2,5.6c-0.1,0-0.2,0-0.4-0.1h-0.2
	c-0.6,0-1.3,0.2-1.8,0.7l-3.5-2.1c0.3-1.4-0.6-2.7-2.1-3c-0.1,0-0.2,0-0.3,0h-0.2c-1.5,0-2.6,1.2-2.6,2.6c0,0.6,0.2,1.3,0.7,1.8
	l-3.2,5.6c-0.1,0-0.2,0-0.4,0h-0.2c-1.5,0-2.6,1-2.7,2.5c0,1.5,1,2.6,2.5,2.7h0.2c1.5,0,2.6-1.2,2.6-2.6c0-0.6-0.2-1.3-0.7-1.8
	l3.2-5.6c0.1,0,0.2,0,0.4,0.1h0.2c0.7,0,1.4-0.3,1.9-0.7l3.3,2c-0.3,1.4,0.5,2.8,2,3c0.1,0,0.2,0,0.4,0.1h0.2c1.5,0,2.6-1.2,2.6-2.6
	c0-0.6-0.2-1.3-0.7-1.8l3.2-5.6c0.1,0,0.2,0,0.4,0h0.2c1.5,0,2.6-1.2,2.5-2.6C514.8,406.7,513.8,405.5,512.5,405.4z M493.1,424.6
	L493.1,424.6c-0.6,0-1.2-0.5-1-1c0.1-0.5,0.5-1,1-1l0,0h0.1c0.6,0,1,0.5,1,1C494.2,424,493.7,424.6,493.1,424.6z M498.8,414.6
	L498.8,414.6c-0.6,0-1.2-0.5-1-1s0.5-1,1-1h0.1c0.6,0,1,0.5,1,1S499.3,414.6,498.8,414.6z M507.6,418c0,0.6-0.4,1-1,1h-0.1
	c-0.6,0-1-0.5-1-1s0.5-1,1-1h0.1C507.2,417,507.6,417.4,507.6,418L507.6,418z M513.3,408.1c0,0.6-0.4,1-1,1h-0.1c-0.6,0-1-0.5-1-1
	c0-0.5,0.5-1,1-1h0.1C512.9,407.1,513.3,407.5,513.3,408.1L513.3,408.1z"/>
<path fill="#FD5000" d="M513.7,496.8c-0.1-0.1-0.3-0.2-0.5-0.2h-11.8l-6.5-6.5c-0.4-0.3-0.9-0.1-1.3,0.3c-0.2,0.3-0.2,0.6,0,0.9
	l5.2,5.2h-6.3c-0.5,0-0.8,0.4-0.8,0.8v3c0.4,6.2,5.8,10.9,11.9,10.5c5.5-0.4,10-4.8,10.5-10.5v-3C514.1,497.3,514,497.1,513.7,496.8
	z M502.9,509.2c-4.2,0-7.8-2.7-9.1-6.8H512C510.7,506.5,507.1,509.2,502.9,509.2z M512.3,500.5v0.1h-18.8v-0.1c0-0.2,0-0.5,0-0.7
	c0-0.2,0-0.5,0-0.7v-0.5h18.8v0.5c0,0.2,0,0.5,0,0.7C512.3,500,512.3,500.2,512.3,500.5L512.3,500.5z"/>
<path fill="#FFFFFF" d="M577,322.6c5,0,9,4.1,9,9s-4.1,9-9,9c-5,0-9-4.1-9-9l0,0C568,326.5,571.9,322.6,577,322.6 M577,320.7
	c-6.1,0-10.9,4.9-10.9,11s4.9,10.9,11,10.9c6.1,0,10.9-4.9,10.9-11C587.9,325.5,583,320.6,577,320.7L577,320.7L577,320.7L577,320.7z
	"/>
<polygon fill="#FFFFFF" points="581.8,331.6 574.5,335.6 574.5,327.4 "/>
<path fill="#FFFFFF" d="M586.8,405.4h-0.2c-1.5,0-2.6,1.2-2.6,2.6c0,0.6,0.2,1.3,0.7,1.8l-3.3,5.6c-0.1,0-0.2,0-0.4-0.1h-0.2
	c-0.6,0-1.3,0.2-1.8,0.7l-3.5-2.1c0.3-1.4-0.6-2.7-2.1-3c-0.1,0-0.2,0-0.3,0h-0.2c-1.5,0-2.6,1.2-2.6,2.6c0,0.6,0.2,1.3,0.7,1.8
	l-3.3,5.6c-0.1,0-0.2,0-0.4,0H567c-1.5,0-2.6,1-2.7,2.5c0,1.5,1,2.6,2.5,2.7h0.2c1.5,0,2.6-1.2,2.6-2.6c0-0.6-0.2-1.3-0.7-1.8
	l3.3-5.6c0.1,0,0.2,0,0.4,0.1h0.2c0.7,0,1.4-0.3,1.9-0.7l3.3,2c-0.3,1.4,0.5,2.8,2,3c0.1,0,0.2,0,0.4,0.1h0.2c1.5,0,2.6-1.2,2.6-2.6
	c0-0.6-0.2-1.3-0.7-1.8l3.3-5.6c0.1,0,0.2,0,0.4,0h0.2c1.5,0,2.6-1.2,2.5-2.6C589.1,406.7,588,405.5,586.8,405.4z M567.3,424.6
	L567.3,424.6c-0.6,0-1.2-0.5-1-1c0-0.6,0.5-1,1-1l0,0h0.1c0.6,0,1,0.5,1,1C568.4,424.1,568,424.6,567.3,424.6z M573.1,414.6
	L573.1,414.6c-0.6,0-1.2-0.5-1-1c0-0.6,0.5-1,1-1h0.1c0.6,0,1,0.5,1,1C574.1,414.2,573.6,414.6,573.1,414.6z M581.9,418
	c0,0.6-0.4,1-1,1h-0.1c-0.6,0-1-0.5-1-1c0-0.6,0.5-1,1-1h0.1C581.5,417,581.9,417.4,581.9,418L581.9,418z M587.6,408.1
	c0,0.6-0.4,1-1,1h-0.1c-0.6,0-1-0.5-1-1c0-0.6,0.5-1,1-1h0.1C587.2,407.1,587.6,407.5,587.6,408.1L587.6,408.1z"/>
<path fill="#FFFFFF" d="M587.9,496.8c-0.1-0.1-0.3-0.2-0.5-0.2h-11.8l-6.5-6.5c-0.2-0.4-0.7-0.5-1.2-0.3c-0.4,0.2-0.5,0.7-0.3,1.2
	c0.1,0.1,0.2,0.2,0.3,0.3l5.2,5.2h-6.3c-0.5,0-0.8,0.4-0.8,0.8v3c0.4,6.2,5.8,10.9,11.9,10.5c5.5-0.4,10-4.8,10.5-10.5v-3
	C588.4,497.3,588.3,497.1,587.9,496.8z M577.2,509.2c-4.2,0-7.8-2.7-9.1-6.8h18.2C585,506.5,581.3,509.2,577.2,509.2z M586.6,500.5
	v0.1h-18.8v-0.1c0-0.2,0-0.5,0-0.7c0-0.2,0-0.5,0-0.7v-0.5h18.8v0.5c0,0.2,0,0.5,0,0.7C586.6,500,586.6,500.2,586.6,500.5
	L586.6,500.5z"/>
<path fill="#FFFFFF" d="M140.5,337.3c0-4.4,4.1-7.1,8.2-7.1c3.8,0,7.2,2.6,7.2,6.6c0,3.8-1.9,7.8-6.2,7.8c-1.2,0-2.2-0.5-2.7-1.5
	c-0.9,3.6-0.8,4.2-2.8,6.9l-0.2,0.1l-0.1-0.1c-0.1-0.7-0.2-1.5-0.2-2.2c0-2.4,1.2-6,1.7-8.4c-0.3-0.6-0.4-1.4-0.4-2
	c0-1.3,0.8-2.7,2.2-2.7c0.8,0,1.6,0.6,1.6,1.5c0,0.1,0,0.2,0,0.2c0,1.6-1,3-1,4.5c0,0.9,0.8,1.8,1.8,1.8c0,0,0,0,0.1,0
	c2.7,0,3.6-4,3.6-6.1c0-2.8-2-4.4-4.7-4.4c-2.9-0.1-5.4,2.2-5.5,5.1c0,0.1,0,0.2,0,0.3c0,1.6,0.9,2.3,0.9,2.7c0,0.4-0.2,1.5-0.6,1.5
	c-0.1,0-0.1,0-0.2,0C141.1,341.2,140.5,338.9,140.5,337.3z"/>
<path fill="#F26822" d="M97.7,337.3c0-4.4,4.1-7.1,8.2-7.1c3.8,0,7.2,2.6,7.2,6.6c0,3.8-1.9,7.8-6.2,7.8c-1.2,0-2.2-0.5-2.7-1.5
	c-0.9,3.6-0.8,4.2-2.8,6.9l-0.2,0.1l-0.1-0.1c-0.1-0.7-0.2-1.5-0.2-2.2c0-2.4,1.2-6,1.7-8.4c-0.3-0.6-0.4-1.4-0.4-2
	c0-1.3,0.8-2.7,2.2-2.7c0.8,0,1.6,0.6,1.6,1.5c0,0.1,0,0.2,0,0.2c0,1.6-1,3-1,4.5c0,0.9,0.8,1.8,1.8,1.8c0,0,0,0,0.1,0
	c2.7,0,3.6-4,3.6-6.1c0-2.8-2-4.4-4.7-4.4c-2.9-0.1-5.4,2.2-5.5,5.1c0,0.1,0,0.2,0,0.3c0,1.6,0.9,2.3,0.9,2.7c0,0.4-0.2,1.5-0.6,1.5
	c-0.1,0-0.1,0-0.2,0C98.2,341.2,97.7,338.9,97.7,337.3z"/>
</svg>
